{
    "KPlugin": {
        "Category": "Appearance",
        "Description": "Improve contrast and readability behind semi-transparent windows",
        "Description[ar]": "حسِّن التباين وقابلية القراءة خلف النوافذ الظاهرة جزئيًّا",
        "Description[az]": "Yarımşəffaf pəncərənin altındakı fonun kontrastını yaxşılaşdırır",
        "Description[ca@valencia]": "Millora el contrast i la llegibilitat darrere de les finestres semitransparents",
        "Description[ca]": "Millora el contrast i la llegibilitat darrere de les finestres semitransparents",
        "Description[cs]": "Vylepšit kontrast a čitelnost za poloprůhlednými okny",
        "Description[en_GB]": "Improve contrast and readability behind semi-transparent windows",
        "Description[es]": "Mejora el contraste y la legibilidad detrás de las ventanas semitransparentes",
        "Description[fi]": "Paranna kontrastia ja luettavuutta puoliksi läpikuultavien ikkunoiden takana",
        "Description[fr]": "Améliore le contraste et la lisibilité derrière les fenêtres semi transparentes",
        "Description[hu]": "Megnöveli a kontrasztot és az olvashatóságot a félig áttetsző ablakok mögött",
        "Description[ia]": "Meliora contrasto de fundo  e legibilitate detra fenestras semi-transparente",
        "Description[id]": "Memperbaiki kontras dan keterbacaan belakang window semi transparan",
        "Description[it]": "Migliora il contrasto e la leggibilità dietro a finestre semitrasparenti",
        "Description[ko]": "반투명 창 뒤편의 명암과 가독성을 개선함",
        "Description[nl]": "Contrast en leesbaarheid verbeteren achter half-transparante vensters",
        "Description[nn]": "Forbetra kontrasten og leselegheit bak delvis gjennomsiktige vindauge",
        "Description[pl]": "Polepsza kontrast i czytelność za półprzezroczystymi oknami",
        "Description[pt]": "Melhorar o contraste e legibilidade atrás de janelas semi-transparentes",
        "Description[pt_BR]": "Melhora o contraste e legibilidade por trás das janelas semitransparentes",
        "Description[ro]": "Îmbunătățește contrastul și lizibilitatea în spatele ferestrelor semi-transparente",
        "Description[ru]": "Улучшение контрастности под полупрозрачными окнами",
        "Description[sk]": "Zlepšiť kontrast a čitateľnosť za polopriehľadnými oknami",
        "Description[sl]": "Poboljšaj kontrast in berljivost polprosojnih oken",
        "Description[sv]": "Förbättra kontrast och läsbarhet bakom halvgenomskinliga fönster",
        "Description[ta]": "ஒளிபுகும் சாளரங்களுக்கு பின் உள்ளவற்றை படிக்க உதவும் வித‍த்தில் நிறங்களுக்கிடையேயான மாறுபாட்டை அதிகமாக்கும்",
        "Description[tr]": "Yarı saydam pencerelerin ardında karşıtlığı ve okunabilirlilği iyileştir",
        "Description[uk]": "Покращення контрастності та придатності до читання тексту під напівпрозорими вікнами",
        "Description[vi]": "Cải thiện độ tương phản và tính dễ đọc phía sau các cửa sổ bán trong suốt",
        "Description[x-test]": "xxImprove contrast and readability behind semi-transparent windowsxx",
        "Description[zh_CN]": "增强半透明窗口背景区域内容的对比度，改善其可读性",
        "EnabledByDefault": true,
        "Id": "contrast",
        "License": "GPL",
        "Name": "Background contrast",
        "Name[ar]": "تباين الخلفية",
        "Name[az]": "Fon kontrastı",
        "Name[ca@valencia]": "Contrast del fons",
        "Name[ca]": "Contrast del fons",
        "Name[cs]": "Kontrast pozadí",
        "Name[en_GB]": "Background contrast",
        "Name[es]": "Contraste del fondo",
        "Name[fi]": "Taustakontrasti",
        "Name[fr]": "Contraste de l'arrière-plan",
        "Name[hu]": "Háttérkontraszt",
        "Name[ia]": "Contrasto de fundo",
        "Name[it]": "Contrasto dello sfondo",
        "Name[ko]": "배경 명암",
        "Name[nl]": "Contrast in achtergrond",
        "Name[nn]": "Bakgrunnskontrast",
        "Name[pl]": "Kontrast tła",
        "Name[pt]": "Contraste do fundo",
        "Name[pt_BR]": "Contraste do plano de fundo",
        "Name[ro]": "Contrast de fundal",
        "Name[ru]": "Контрастность фона",
        "Name[sk]": "Kontrast pozadia",
        "Name[sl]": "Kontrast ozadja",
        "Name[sv]": "Bakgrundskontrast",
        "Name[ta]": "பின்புலம் நிறமாறுபாடு",
        "Name[tr]": "Arka plan karşıtlığı",
        "Name[uk]": "Контрастність тла",
        "Name[vi]": "Tương phản nền",
        "Name[x-test]": "xxBackground contrastxx",
        "Name[zh_CN]": "背景对比度增强"
    },
    "org.kde.kwin.effect": {
        "enabledByDefaultMethod": true
    }
}
